state,type,phase,value,reference_year
AC,biomass,operation,1.5,2015
AL,biomass,operation,317.462,2015
AM,biomass,operation,17.027,2015
AP,biomass,operation,1.7,2015
BA,biomass,operation,531.8,2015
CE,biomass,operation,0.0,2015
DF,biomass,operation,0.0,2015
ES,biomass,operation,250.1,2015
GO,biomass,operation,1347.368,2015
MA,biomass,operation,286.84000000000003,2015
MG,biomass,operation,1601.63885,2015
MS,biomass,operation,1488.061,2015
MT,biomass,operation,231.74699999999999,2015
PA,biomass,operation,83.91040000000001,2015
PB,biomass,operation,76.0,2015
PE,biomass,operation,298.455,2015
PI,biomass,operation,18.0,2015
PR,biomass,operation,1170.416,2015
RJ,biomass,operation,56.14,2015
RN,biomass,operation,61.0,2015
RO,biomass,operation,26.288,2015
RR,biomass,operation,4.8,2015
RS,biomass,operation,327.318,2015
SC,biomass,operation,242.0,2015
SE,biomass,operation,59.7,2015
SP,biomass,operation,5945.2102,2015
TO,biomass,operation,80.0,2015
AC,biomass,planning,28.97,2015
AL,biomass,planning,0.0,2015
AM,biomass,planning,27.6,2015
AP,biomass,planning,0.0,2015
BA,biomass,planning,22.5,2015
CE,biomass,planning,0.0,2015
DF,biomass,planning,0.0,2015
ES,biomass,planning,0.0,2015
GO,biomass,planning,123.45,2015
MA,biomass,planning,0.0,2015
MG,biomass,planning,302.7,2015
MS,biomass,planning,193.2,2015
MT,biomass,planning,379.0,2015
PA,biomass,planning,0.0,2015
PB,biomass,planning,0.0,2015
PE,biomass,planning,12.0,2015
PI,biomass,planning,0.0,2015
PR,biomass,planning,142.4,2015
RJ,biomass,planning,8.466,2015
RN,biomass,planning,0.0,2015
RO,biomass,planning,0.0,2015
RR,biomass,planning,135.183,2015
RS,biomass,planning,80.0,2015
SC,biomass,planning,0.0,2015
SE,biomass,planning,0.0,2015
SP,biomass,planning,822.475,2015
TO,biomass,planning,0.0,2015
AC,coal,operation,0.0,2015
AL,coal,operation,0.0,2015
AM,coal,operation,0.0,2015
AP,coal,operation,0.0,2015
BA,coal,operation,0.0,2015
CE,coal,operation,1303.274,2015
DF,coal,operation,0.0,2015
ES,coal,operation,0.0,2015
GO,coal,operation,0.0,2015
MA,coal,operation,440.237,2015
MG,coal,operation,113.065,2015
MS,coal,operation,0.0,2015
MT,coal,operation,0.0,2015
PA,coal,operation,103.854,2015
PB,coal,operation,0.0,2015
PE,coal,operation,0.0,2015
PI,coal,operation,0.0,2015
PR,coal,operation,20.0,2015
RJ,coal,operation,21.0,2015
RN,coal,operation,0.0,2015
RO,coal,operation,0.0,2015
RR,coal,operation,0.0,2015
RS,coal,operation,695.0,2015
SC,coal,operation,862.0,2015
SE,coal,operation,0.0,2015
SP,coal,operation,24.4,2015
TO,coal,operation,0.0,2015
AC,gas,operation,0.0,2015
AL,gas,operation,6.8774999999999995,2015
AM,gas,operation,232.051,2015
AP,gas,operation,0.0,2015
BA,gas,operation,338.27,2015
CE,gas,operation,564.975,2015
DF,gas,operation,0.0,2015
ES,gas,operation,557.566,2015
GO,gas,operation,0.0,2015
MA,gas,operation,845.544,2015
MG,gas,operation,381.69820000000004,2015
MS,gas,operation,391.774,2015
MT,gas,operation,529.2,2015
PA,gas,operation,0.0,2015
PB,gas,operation,0.0,2015
PE,gas,operation,595.153,2015
PI,gas,operation,0.0,2015
PR,gas,operation,504.68899999999996,2015
RJ,gas,operation,5096.37594,2015
RN,gas,operation,328.64715,2015
RO,gas,operation,426.53,2015
RR,gas,operation,0.0,2015
RS,gas,operation,903.259,2015
SC,gas,operation,340.6052,2015
SE,gas,operation,1524.0400000000002,2015
SP,gas,operation,1000.7084,2015
TO,gas,operation,0.0,2015
AC,gas,planning,0.0,2015
AL,gas,planning,0.0,2015
AM,gas,planning,24.15,2015
AP,gas,planning,0.0,2015
BA,gas,planning,87.543,2015
CE,gas,planning,0.0,2015
DF,gas,planning,0.0,2015
ES,gas,planning,0.0,2015
GO,gas,planning,0.0,2015
MA,gas,planning,391.289,2015
MG,gas,planning,0.0,2015
MS,gas,planning,177.116,2015
MT,gas,planning,0.0,2015
PA,gas,planning,604.52,2015
PB,gas,planning,0.0,2015
PE,gas,planning,0.0,2015
PI,gas,planning,0.0,2015
PR,gas,planning,0.0,2015
RJ,gas,planning,3833.5,2015
RN,gas,planning,0.0,2015
RO,gas,planning,0.0,2015
RR,gas,planning,140.834,2015
RS,gas,planning,0.0,2015
SC,gas,planning,0.0,2015
SE,gas,planning,0.0,2015
SP,gas,planning,11.2,2015
TO,gas,planning,0.0,2015
AC,hydro,operation,0.0,2015
AL,hydro,operation,0.0,2015
AM,hydro,operation,274.71,2015
AP,hydro,operation,549.0,2015
BA,hydro,operation,5011.619,2015
CE,hydro,operation,0.0,2015
DF,hydro,operation,0.0,2015
ES,hydro,operation,258.337,2015
GO,hydro,operation,1630.9270000000001,2015
MA,hydro,operation,0.0,2015
MG,hydro,operation,13252.016,2015
MS,hydro,operation,253.6,2015
MT,hydro,operation,3662.1,2015
PA,hydro,operation,11626.050000000001,2015
PB,hydro,operation,0.0,2015
PE,hydro,operation,1479.6,2015
PI,hydro,operation,237.3,2015
PR,hydro,operation,13853.068000000001,2015
RJ,hydro,operation,882.918,2015
RN,hydro,operation,0.0,2015
RO,hydro,operation,7608.25,2015
RR,hydro,operation,0.0,2015
RS,hydro,operation,3964.02,2015
SC,hydro,operation,3186.89,2015
SE,hydro,operation,3162.0,2015
SP,hydro,operation,5190.609,2015
TO,hydro,operation,2731.45,2015
AC,hydro,planning,0.0,2015
AL,hydro,planning,0.0,2015
AM,hydro,planning,0.0,2015
AP,hydro,planning,0.0,2015
BA,hydro,planning,0.0,2015
CE,hydro,planning,0.0,2015
DF,hydro,planning,0.0,2015
ES,hydro,planning,0.0,2015
GO,hydro,planning,50.0,2015
MA,hydro,planning,0.0,2015
MG,hydro,planning,0.0,2015
MS,hydro,planning,0.0,2015
MT,hydro,planning,0.0,2015
PA,hydro,planning,0.0,2015
PB,hydro,planning,0.0,2015
PE,hydro,planning,0.0,2015
PI,hydro,planning,0.0,2015
PR,hydro,planning,62.0,2015
RJ,hydro,planning,150.0,2015
RN,hydro,planning,0.0,2015
RO,hydro,planning,0.0,2015
RR,hydro,planning,0.0,2015
RS,hydro,planning,0.0,2015
SC,hydro,planning,141.9,2015
SE,hydro,planning,0.0,2015
SP,hydro,planning,0.0,2015
TO,hydro,planning,0.0,2015
AC,mini_hydro,operation,0.0,2015
AL,mini_hydro,operation,4.6682,2015
AM,mini_hydro,operation,0.0,2015
AP,mini_hydro,operation,0.0,2015
BA,mini_hydro,operation,13.31708,2015
CE,mini_hydro,operation,1.263,2015
DF,mini_hydro,operation,0.0,2015
ES,mini_hydro,operation,1.4195,2015
GO,mini_hydro,operation,12.18472,2015
MA,mini_hydro,operation,0.10795,2015
MG,mini_hydro,operation,160.4489,2015
MS,mini_hydro,operation,17.67701,2015
MT,mini_hydro,operation,69.518,2015
PA,mini_hydro,operation,3.122,2015
PB,mini_hydro,operation,1.0,2015
PE,mini_hydro,operation,10.25764,2015
PI,mini_hydro,operation,0.0,2015
PR,mini_hydro,operation,82.06345,2015
RJ,mini_hydro,operation,12.813690000000001,2015
RN,mini_hydro,operation,0.05,2015
RO,mini_hydro,operation,20.35462,2015
RR,mini_hydro,operation,7.4,2015
RS,mini_hydro,operation,61.43795,2015
SC,mini_hydro,operation,226.31079,2015
SE,mini_hydro,operation,0.55,2015
SP,mini_hydro,operation,59.64383,2015
TO,mini_hydro,operation,14.5454,2015
AC,mini_hydro,planning,0.0,2015
AL,mini_hydro,planning,0.0,2015
AM,mini_hydro,planning,0.0,2015
AP,mini_hydro,planning,0.0,2015
BA,mini_hydro,planning,0.0,2015
CE,mini_hydro,planning,0.0,2015
DF,mini_hydro,planning,0.0,2015
ES,mini_hydro,planning,0.0,2015
GO,mini_hydro,planning,3.0,2015
MA,mini_hydro,planning,0.0,2015
MG,mini_hydro,planning,6.7,2015
MS,mini_hydro,planning,0.0,2015
MT,mini_hydro,planning,0.0,2015
PA,mini_hydro,planning,0.0,2015
PB,mini_hydro,planning,0.0,2015
PE,mini_hydro,planning,0.0,2015
PI,mini_hydro,planning,0.0,2015
PR,mini_hydro,planning,1.0,2015
RJ,mini_hydro,planning,0.0,2015
RN,mini_hydro,planning,0.0,2015
RO,mini_hydro,planning,0.0,2015
RR,mini_hydro,planning,0.0,2015
RS,mini_hydro,planning,0.0,2015
SC,mini_hydro,planning,2.0,2015
SE,mini_hydro,planning,0.0,2015
SP,mini_hydro,planning,0.0,2015
TO,mini_hydro,planning,0.0,2015
AC,nuclear,operation,0.0,2015
AL,nuclear,operation,0.0,2015
AM,nuclear,operation,0.0,2015
AP,nuclear,operation,0.0,2015
BA,nuclear,operation,0.0,2015
CE,nuclear,operation,0.0,2015
DF,nuclear,operation,0.0,2015
ES,nuclear,operation,0.0,2015
GO,nuclear,operation,0.0,2015
MA,nuclear,operation,0.0,2015
MG,nuclear,operation,0.0,2015
MS,nuclear,operation,0.0,2015
MT,nuclear,operation,0.0,2015
PA,nuclear,operation,0.0,2015
PB,nuclear,operation,0.0,2015
PE,nuclear,operation,0.0,2015
PI,nuclear,operation,0.0,2015
PR,nuclear,operation,0.0,2015
RJ,nuclear,operation,1990.0,2015
RN,nuclear,operation,0.0,2015
RO,nuclear,operation,0.0,2015
RR,nuclear,operation,0.0,2015
RS,nuclear,operation,0.0,2015
SC,nuclear,operation,0.0,2015
SE,nuclear,operation,0.0,2015
SP,nuclear,operation,0.0,2015
TO,nuclear,operation,0.0,2015
AC,nuclear,planning,0.0,2015
AL,nuclear,planning,0.0,2015
AM,nuclear,planning,0.0,2015
AP,nuclear,planning,0.0,2015
BA,nuclear,planning,0.0,2015
CE,nuclear,planning,0.0,2015
DF,nuclear,planning,0.0,2015
ES,nuclear,planning,0.0,2015
GO,nuclear,planning,0.0,2015
MA,nuclear,planning,0.0,2015
MG,nuclear,planning,0.0,2015
MS,nuclear,planning,0.0,2015
MT,nuclear,planning,0.0,2015
PA,nuclear,planning,0.0,2015
PB,nuclear,planning,0.0,2015
PE,nuclear,planning,0.0,2015
PI,nuclear,planning,0.0,2015
PR,nuclear,planning,0.0,2015
RJ,nuclear,planning,1350.0,2015
RN,nuclear,planning,0.0,2015
RO,nuclear,planning,0.0,2015
RR,nuclear,planning,0.0,2015
RS,nuclear,planning,0.0,2015
SC,nuclear,planning,0.0,2015
SE,nuclear,planning,0.0,2015
SP,nuclear,planning,0.0,2015
TO,nuclear,planning,0.0,2015
AC,oil,operation,71.2036,2015
AL,oil,operation,9.9036,2015
AM,oil,operation,574.1254,2015
AP,oil,operation,44.207,2015
BA,oil,operation,784.1466,2015
CE,oil,operation,284.90909999999997,2015
DF,oil,operation,16.3584,2015
ES,oil,operation,582.3664,2015
GO,oil,operation,536.21859,2015
MA,oil,operation,339.8066,2015
MG,oil,operation,323.11908,2015
MS,oil,operation,7.926,2015
MT,oil,operation,82.845,2015
PA,oil,operation,161.12695,2015
PB,oil,operation,346.0548,2015
PE,oil,operation,1158.6039999999998,2015
PI,oil,operation,69.486,2015
PR,oil,operation,117.86035,2015
RJ,oil,operation,633.0694,2015
RN,oil,operation,305.7438,2015
RO,oil,operation,182.422,2015
RR,oil,operation,332.57278,2015
RS,oil,operation,233.37120000000002,2015
SC,oil,operation,66.44456,2015
SE,oil,operation,31.595399999999998,2015
SP,oil,operation,1424.96734,2015
TO,oil,operation,18.529,2015
AC,oil,planning,0.0,2015
AL,oil,planning,0.0,2015
AM,oil,planning,99.1955,2015
AP,oil,planning,0.0,2015
BA,oil,planning,288.0,2015
CE,oil,planning,0.0,2015
DF,oil,planning,0.0,2015
ES,oil,planning,0.0,2015
GO,oil,planning,0.0,2015
MA,oil,planning,0.0,2015
MG,oil,planning,30.0,2015
MS,oil,planning,0.0,2015
MT,oil,planning,0.0,2015
PA,oil,planning,0.0,2015
PB,oil,planning,0.0,2015
PE,oil,planning,0.0,2015
PI,oil,planning,0.0,2015
PR,oil,planning,0.0,2015
RJ,oil,planning,0.0,2015
RN,oil,planning,0.0,2015
RO,oil,planning,0.0,2015
RR,oil,planning,42.25,2015
RS,oil,planning,0.0,2015
SC,oil,planning,0.0,2015
SE,oil,planning,0.0,2015
SP,oil,planning,40.14,2015
TO,oil,planning,0.0,2015
AC,on_wind,operation,0.0,2015
AL,on_wind,operation,0.0,2015
AM,on_wind,operation,0.0,2015
AP,on_wind,operation,0.0,2015
BA,on_wind,operation,3400.14064,2015
CE,on_wind,operation,2062.14,2015
DF,on_wind,operation,0.0,2015
ES,on_wind,operation,0.0,2015
GO,on_wind,operation,0.0,2015
MA,on_wind,operation,0.0225,2015
MG,on_wind,operation,0.156,2015
MS,on_wind,operation,0.0,2015
MT,on_wind,operation,0.0,2015
PA,on_wind,operation,0.0,2015
PB,on_wind,operation,157.2,2015
PE,on_wind,operation,772.765,2015
PI,on_wind,operation,1437.9,2015
PR,on_wind,operation,2.5,2015
RJ,on_wind,operation,28.05,2015
RN,on_wind,operation,4072.156,2015
RO,on_wind,operation,0.0,2015
RR,on_wind,operation,0.0,2015
RS,on_wind,operation,1820.89198,2015
SC,on_wind,operation,250.5995,2015
SE,on_wind,operation,34.5,2015
SP,on_wind,operation,0.00224,2015
TO,on_wind,operation,0.0,2015
AC,on_wind,planning,0.0,2015
AL,on_wind,planning,0.0,2015
AM,on_wind,planning,0.0,2015
AP,on_wind,planning,0.0,2015
BA,on_wind,planning,4601.06,2015
CE,on_wind,planning,238.20000000000002,2015
DF,on_wind,planning,0.0,2015
ES,on_wind,planning,0.0,2015
GO,on_wind,planning,0.0,2015
MA,on_wind,planning,0.0,2015
MG,on_wind,planning,0.0,2015
MS,on_wind,planning,0.0,2015
MT,on_wind,planning,0.0,2015
PA,on_wind,planning,0.0,2015
PB,on_wind,planning,887.6949999999999,2015
PE,on_wind,planning,241.8,2015
PI,on_wind,planning,1459.7,2015
PR,on_wind,planning,0.0,2015
RJ,on_wind,planning,0.0,2015
RN,on_wind,planning,5158.88,2015
RO,on_wind,planning,0.0,2015
RR,on_wind,planning,0.0,2015
RS,on_wind,planning,52.5,2015
SC,on_wind,planning,0.0,2015
SE,on_wind,planning,0.0,2015
SP,on_wind,planning,0.0,2015
TO,on_wind,planning,0.0,2015
AC,small_hydro,operation,0.0,2015
AL,small_hydro,operation,0.0,2015
AM,small_hydro,operation,0.0,2015
AP,small_hydro,operation,0.0,2015
BA,small_hydro,operation,101.81,2015
CE,small_hydro,operation,0.0,2015
DF,small_hydro,operation,30.0,2015
ES,small_hydro,operation,182.93200000000002,2015
GO,small_hydro,operation,355.872,2015
MA,small_hydro,operation,8.0,2015
MG,small_hydro,operation,709.19417,2015
MS,small_hydro,operation,294.968,2015
MT,small_hydro,operation,968.574,2015
PA,small_hydro,operation,60.0,2015
PB,small_hydro,operation,3.52,2015
PE,small_hydro,operation,13.475000000000001,2015
PI,small_hydro,operation,0.0,2015
PR,small_hydro,operation,302.802,2015
RJ,small_hydro,operation,270.055,2015
RN,small_hydro,operation,0.0,2015
RO,small_hydro,operation,151.171,2015
RR,small_hydro,operation,0.0,2015
RS,small_hydro,operation,612.4973,2015
SC,small_hydro,operation,460.559,2015
SE,small_hydro,operation,0.0,2015
SP,small_hydro,operation,338.798,2015
TO,small_hydro,operation,156.764,2015
AC,small_hydro,planning,0.0,2015
AL,small_hydro,planning,0.0,2015
AM,small_hydro,planning,0.0,2015
AP,small_hydro,planning,7.5,2015
BA,small_hydro,planning,15.5,2015
CE,small_hydro,planning,1.319,2015
DF,small_hydro,planning,0.0,2015
ES,small_hydro,planning,28.5,2015
GO,small_hydro,planning,155.49,2015
MA,small_hydro,planning,0.0,2015
MG,small_hydro,planning,238.237,2015
MS,small_hydro,planning,22.0,2015
MT,small_hydro,planning,237.37,2015
PA,small_hydro,planning,0.0,2015
PB,small_hydro,planning,0.0,2015
PE,small_hydro,planning,0.0,2015
PI,small_hydro,planning,0.0,2015
PR,small_hydro,planning,335.154,2015
RJ,small_hydro,planning,26.894,2015
RN,small_hydro,planning,0.0,2015
RO,small_hydro,planning,61.5,2015
RR,small_hydro,planning,0.0,2015
RS,small_hydro,planning,196.00495,2015
SC,small_hydro,planning,271.0228,2015
SE,small_hydro,planning,0.0,2015
SP,small_hydro,planning,28.74,2015
TO,small_hydro,planning,8.0,2015
AC,solar_pv,operation,0.0,2015
AL,solar_pv,operation,0.0,2015
AM,solar_pv,operation,0.17604,2015
AP,solar_pv,operation,4.0392,2015
BA,solar_pv,operation,173.80780000000001,2015
CE,solar_pv,operation,5.0,2015
DF,solar_pv,operation,0.0,2015
ES,solar_pv,operation,3.07363,2015
GO,solar_pv,operation,0.0,2015
MA,solar_pv,operation,0.2625299999999999,2015
MG,solar_pv,operation,99.94268,2015
MS,solar_pv,operation,2.00138,2015
MT,solar_pv,operation,3.9699999999999998,2015
PA,solar_pv,operation,4.157,2015
PB,solar_pv,operation,27.9836,2015
PE,solar_pv,operation,10.66,2015
PI,solar_pv,operation,2.5,2015
PR,solar_pv,operation,0.5644199999999999,2015
RJ,solar_pv,operation,4.2899,2015
RN,solar_pv,operation,3.4123400000000004,2015
RO,solar_pv,operation,1.02048,2015
RR,solar_pv,operation,0.0,2015
RS,solar_pv,operation,4.31861,2015
SC,solar_pv,operation,7.80553,2015
SE,solar_pv,operation,0.0,2015
SP,solar_pv,operation,232.30607,2015
TO,solar_pv,operation,0.0,2015
AC,solar_pv,planning,0.0,2015
AL,solar_pv,planning,0.0,2015
AM,solar_pv,planning,0.0,2015
AP,solar_pv,planning,0.0,2015
BA,solar_pv,planning,3586.02795,2015
CE,solar_pv,planning,2451.153,2015
DF,solar_pv,planning,0.0,2015
ES,solar_pv,planning,0.0,2015
GO,solar_pv,planning,400.0,2015
MA,solar_pv,planning,0.0,2015
MG,solar_pv,planning,5376.266,2015
MS,solar_pv,planning,800.617,2015
MT,solar_pv,planning,0.0,2015
PA,solar_pv,planning,0.0,2015
PB,solar_pv,planning,1075.41,2015
PE,solar_pv,planning,2892.496,2015
PI,solar_pv,planning,2368.264,2015
PR,solar_pv,planning,0.0,2015
RJ,solar_pv,planning,0.0,2015
RN,solar_pv,planning,1321.298,2015
RO,solar_pv,planning,0.0,2015
RR,solar_pv,planning,0.0,2015
RS,solar_pv,planning,0.0,2015
SC,solar_pv,planning,0.0,2015
SE,solar_pv,planning,0.0,2015
SP,solar_pv,planning,498.49,2015
TO,solar_pv,planning,0.0,2015
