{
  "Input DataFrame size": 771456,
  "Number of NaN per year": {
    "N": {
      "1999": 1,
      "2000": 1,
      "2001": 1,
      "2002": 1,
      "2003": 1,
      "2004": 1,
      "2005": 1,
      "2006": 1,
      "2007": 2,
      "2008": 1,
      "2009": 1,
      "2010": 1,
      "2011": 1,
      "2012": 1,
      "2013": 1,
      "2014": 25,
      "2015": 1,
      "2016": 1,
      "2017": 1,
      "2018": 1,
      "2019": 0,
      "2020": 0
    },
    "NE": {
      "1999": 1,
      "2000": 1,
      "2001": 1,
      "2002": 1,
      "2003": 1,
      "2004": 1,
      "2005": 1,
      "2006": 1,
      "2007": 2,
      "2008": 1,
      "2009": 1,
      "2010": 1,
      "2011": 1,
      "2012": 1,
      "2013": 1,
      "2014": 25,
      "2015": 1,
      "2016": 1,
      "2017": 1,
      "2018": 1,
      "2019": 0,
      "2020": 0
    },
    "S": {
      "1999": 1,
      "2000": 1,
      "2001": 1,
      "2002": 1,
      "2003": 1,
      "2004": 1,
      "2005": 1,
      "2006": 1,
      "2007": 2,
      "2008": 1,
      "2009": 1,
      "2010": 1,
      "2011": 1,
      "2012": 1,
      "2013": 1,
      "2014": 25,
      "2015": 1,
      "2016": 1,
      "2017": 1,
      "2018": 0,
      "2019": 0,
      "2020": 0
    },
    "SE": {
      "1999": 1,
      "2000": 1,
      "2001": 1,
      "2002": 1,
      "2003": 1,
      "2004": 1,
      "2005": 1,
      "2006": 1,
      "2007": 2,
      "2008": 1,
      "2009": 1,
      "2010": 1,
      "2011": 1,
      "2012": 1,
      "2013": 1,
      "2014": 25,
      "2015": 1,
      "2016": 1,
      "2017": 1,
      "2018": 1,
      "2019": 0,
      "2020": 0
    }
  },
  "NaNs total before": 179,
  "Rows with all NaNs are": [
    "1999-10-03 00:00:00",
    "2000-10-08 00:00:00",
    "2001-10-14 00:00:00",
    "2002-11-03 00:00:00",
    "2003-10-19 00:00:00",
    "2004-11-02 00:00:00",
    "2005-10-16 00:00:00",
    "2006-11-05 00:00:00",
    "2007-10-14 00:00:00",
    "2007-12-30 00:00:00",
    "2008-10-19 00:00:00",
    "2009-10-18 00:00:00",
    "2010-10-17 00:00:00",
    "2011-10-16 00:00:00",
    "2012-10-21 00:00:00",
    "2013-10-20 00:00:00",
    "2014-02-01 00:00:00",
    "2014-02-01 01:00:00",
    "2014-02-01 02:00:00",
    "2014-02-01 03:00:00",
    "2014-02-01 04:00:00",
    "2014-02-01 05:00:00",
    "2014-02-01 06:00:00",
    "2014-02-01 07:00:00",
    "2014-02-01 08:00:00",
    "2014-02-01 09:00:00",
    "2014-02-01 10:00:00",
    "2014-02-01 11:00:00",
    "2014-02-01 12:00:00",
    "2014-02-01 13:00:00",
    "2014-02-01 14:00:00",
    "2014-02-01 15:00:00",
    "2014-02-01 16:00:00",
    "2014-02-01 17:00:00",
    "2014-02-01 18:00:00",
    "2014-02-01 19:00:00",
    "2014-02-01 20:00:00",
    "2014-02-01 21:00:00",
    "2014-02-01 22:00:00",
    "2014-02-01 23:00:00",
    "2014-10-19 00:00:00",
    "2015-10-18 00:00:00",
    "2016-10-16 00:00:00",
    "2017-10-15 00:00:00"
  ],
  "NaNs forward filled with value 7 days before": 179,
  "NaNs filled with normal forward-fill": 0
}